{
  "plug":"Tensorflow",
  "host":"localhost",
  "tfjsBuild":"gpuORcpu",
  "port":8080,
  "hostPort":8082,
  "key":"change_this_to_something_very_random____make_sure_to_match__/plugins/opencv/conf.json",
  "mode":"client",
  "type":"detector",
  "enabled": false
}
